Examine Life Expectancy
…
library(ggplot2)

Abstract

Here, I re-examine the analysis of Oeppen and Vaupel (2002).

Life Expectancy Analysis

Here is the code to organize the data for analysis

lif_exp<- gapminder::gapminder_unfiltered
lif_exp

# A tibble: 3,313 × 6
   country     continent  year lifeExp      pop gdpPercap
   <fct>       <fct>     <int>   <dbl>    <int>     <dbl>
 1 Afghanistan Asia       1952    28.8  8425333      779.
 2 Afghanistan Asia       1957    30.3  9240934      821.
 3 Afghanistan Asia       1962    32.0 10267083      853.
 4 Afghanistan Asia       1967    34.0 11537966      836.
 5 Afghanistan Asia       1972    36.1 13079460      740.
 6 Afghanistan Asia       1977    38.4 14880372      786.
 7 Afghanistan Asia       1982    39.9 12881816      978.
 8 Afghanistan Asia       1987    40.8 13867957      852.
 9 Afghanistan Asia       1992    41.7 16317921      649.
10 Afghanistan Asia       1997    41.8 22227415      635.
# ℹ 3,303 more rows

sumdat <- lif_exp %>%
  group_by(year)%>%
  filter(lifeExp == max (lifeExp, na.rm = TRUE)) %>%
  select(year,country,lifeExp)%>%
  arrange(year)%>%
  ungroup()

print(sumdat)

# A tibble: 60 × 3
    year country lifeExp
   <int> <fct>     <dbl>
 1  1950 Norway     71.6
 2  1951 Norway     72.5
 3  1952 Norway     72.7
 4  1953 Norway     73.2
 5  1954 Iceland    73.4
 6  1955 Norway     73.4
 7  1956 Norway     73.5
 8  1957 Iceland    73.5
 9  1958 Iceland    73.4
10  1958 Norway     73.4
# ℹ 50 more rows
…
